BILIS - Technology
…
Municipality of residence or occurrence

Time parameters:

Year

Month

Week

Other parameters like cid_like, sex, idade and others may be used as filters in the query. An special parameter called more_filters may be used to filter results using SQL language.

rpcdas::get_sim(agg = "uf_res", agg_time = "month", ano = 2010)

# A tibble: 324 × 3
     agg agg_time  freq
   <dbl> <chr>    <dbl>
 1    11 2010-01    675
 2    11 2010-02    594
 3    11 2010-03    597
 4    11 2010-04    588
 5    11 2010-05    618
 6    11 2010-06    533
 7    11 2010-07    585
 8    11 2010-08    633
 9    11 2010-09    612
10    11 2010-10    624
# ℹ 314 more rows
…
Healh region of residence or occurrence

Municipality of residence or occurrence

Time parameters:

Year

Month

Week

recbilis::get_dengue(agg = "uf_res", agg_time = "month", ano = 2010)

# A tibble: 324 × 3
     agg agg_time  freq
   <dbl> <chr>    <dbl>
 1    11 2010-01   9041
 2    11 2010-10     92
 3    11 2010-11    332
 4    11 2010-12    484
 5    11 2010-02   4930
 6    11 2010-03   1620
 7    11 2010-04    615
 8    11 2010-05    295
 9    11 2010-06    150
10    11 2010-07     79
# ℹ 314 more rows
…
The package uses unit testing to ensure reliable results. More details at the package website.

brpop package

This package provides population estimates for Brazilian administrative units.

UF

Health regions

Municialities

brpop::uf_pop_totals()

# A tibble: 594 × 3
      uf  year     pop
   <dbl> <dbl>   <int>
 1    11  2000 1409018
 2    11  2001 1432779
 3    11  2002 1454686
 4    11  2003 1474963
 5    11  2004 1494506
 6    11  2005 1513687
 7    11  2006 1532259
 8    11  2007 1549747
 9    11  2008 1566588
10    11  2009 1582874
# ℹ 584 more rows

The package uses unit testing to ensure reliable results.

More details at the package webpage.

The bilis package

The bilis package internally calls rpcdas, recbilis and brpop functions to compute numerators and denominators for health indicators.

The main functions starts with indi_, where each health indicator definition has a number. The same indicator definition may be applied to compute the health indicator for different spatial and time units, and time intervals.

bilis::indi_0001(agg = "uf_res", agg_time = "month", ano = 2010)

# A tibble: 324 × 4
     cod date    name      value
   <dbl> <chr>   <chr>     <dbl>
 1    11 2010-01 indi_0001  7.94
 2    11 2010-02 indi_0001  6.63
 3    11 2010-03 indi_0001  7.88
 4    11 2010-04 indi_0001  7.76
 5    11 2010-05 indi_0001  8.63
 6    11 2010-06 indi_0001  7.13
 7    11 2010-07 indi_0001  7.82
 8    11 2010-08 indi_0001  9.32
 9    11 2010-09 indi_0001  8.69
10    11 2010-10 indi_0001  9.32
# ℹ 314 more rows
…
